<svg width="426" height="96" viewBox="0 0 426 96" fill="none" xmlns="http://www.w3.org/2000/svg">
<path d="M133.365 33.5318H115.85L113.064 40.8845H96.3486L113.271 0H135.825L152.777 40.8845H136.062L133.365 33.5318ZM129.275 23.0068L124.474 10.525L119.732 23.0068H129.275Z" fill="white"/>
<path d="M190.863 33.5318H173.466L170.503 40.8845H153.936L170.888 0H193.412L210.423 40.8845H193.649L190.863 33.5318ZM186.892 23.0068L182.15 10.525L177.438 23.0068H186.892Z" fill="white"/>
<path d="M251.913 12.8672H234.309V40.8845H219.135V12.8672H201.53V0H251.913V12.8672Z" fill="white"/>
<path d="M326.005 20.3978C326.005 34.5991 318.24 41.4775 301.466 41.4775C284.692 41.4775 276.927 34.6584 276.927 20.3978H292.13C292.13 24.7857 293.701 28.6399 301.466 28.6399C309.231 28.6399 310.802 24.7264 310.802 20.3978V12.8672V0H326.005V20.3978Z" fill="white"/>
<path d="M343.55 11.6813V15.4762H371.586V25.4083H343.55V29.2032H371.586V40.8845H328.376V0H371.586V11.6813H343.55Z" fill="white"/>
<path d="M165.166 54.5222V95.4067H149.992V81.3832H126.045V95.4067H110.871V54.5222H126.045V68.5457H149.992V54.5222H165.166Z" fill="white"/>
<path d="M203.249 88.054H185.853L182.889 95.4067H166.352L183.274 54.5222H205.828L222.75 95.4067H206.065L203.249 88.054ZM199.278 77.529L194.536 65.0472L189.824 77.529H199.278Z" fill="white"/>
<path d="M244.356 53.9294C260.716 53.9294 269.222 59.6515 269.874 72.578H254.344C253.751 68.7238 250.787 66.7966 244.356 66.7966C235.465 66.7966 233.865 70.5916 233.865 74.9202C233.865 79.2488 235.436 83.0141 244.356 83.0141C250.787 83.0141 253.751 81.0276 254.344 77.0845H269.874C269.222 90.0703 260.775 95.8516 244.356 95.8516C226.367 95.8516 218.661 89.0029 218.661 74.7719C218.661 60.5409 226.367 53.9294 244.356 53.9294Z" fill="white"/>
<path d="M303.689 73.7934L327.221 95.4067H306.208L293.109 82.4506L286.826 87.639V95.4067H271.622V54.5222H286.826V70.5321L305.616 54.5222H327.221L303.689 73.7934Z" fill="white"/>
<path d="M343.58 66.2035V69.9984H371.586V80.0491H343.58V83.844H371.586V95.5253H328.376V54.5222H371.586V66.2035H343.58Z" fill="white"/>
<path d="M426 54.5222V95.4067H406.173L388.39 71.2733V95.4067H373.424V54.5222H393.251L411.033 78.6556V54.5222H426Z" fill="white"/>
<path d="M68.1359 68.1606H54.5029V81.7987H68.1359V68.1606Z" fill="white"/>
<path d="M68.1359 81.7988H54.5029V95.4369H68.1359V81.7988Z" fill="#E6E6E6"/>
<path d="M40.8693 0H27.2363V13.638H40.8693V0Z" fill="#E6E6E6"/>
<path d="M40.8693 40H27.2363V55.6381H40.8693V40Z" fill="#E6E6E6"/>
<path d="M40.8693 68.1606H27.2363V81.7987H40.8693V68.1606Z" fill="#E6E6E6"/>
<path d="M55.4719 40.9139V27.2759H39.8389V40.9139H55.4719Z" fill="#CCCCCC"/>
<path d="M40.8693 81.7988H27.2363V95.4369H40.8693V81.7988Z" fill="white"/>
<path fill-rule="evenodd" clip-rule="evenodd" d="M68.1359 0H54.5029V13.638H68.1359V0ZM68.1359 13.6382H54.5029V27.2759V27.2762V40.9139H68.1064H68.1359H81.7383H81.7394H95.3712V27.2759H81.7394H81.7383H68.1359V13.6382Z" fill="white"/>
<path fill-rule="evenodd" clip-rule="evenodd" d="M40.8693 13.6382H27.2363V27.2759H12.6338V40.9139H27.2363H27.2667H40.8693V27.2762V27.2759V13.6382Z" fill="white"/>
<path d="M13.6026 40.9139V27.2759H-0.0302734V40.9139H13.6026Z" fill="#E6E6E6"/>
<path d="M95.3723 68.1603V54.5222H81.7393V68.1603H95.3723Z" fill="#E6E6E6"/>
<path d="M81.7385 68.1603V54.5222H68.1055V68.1603H81.7385Z" fill="white"/>
<path fill-rule="evenodd" clip-rule="evenodd" d="M68.1359 40.8845H54.5029V54.5222H54.5021H40.8693H40.8691H27.2363V68.1603H40.8691H40.8693H54.5021H68.1054V54.5226H68.1359V40.8845Z" fill="#CCCCCC"/>
<path d="M27.2364 68.1603V54.5222H13.6035V68.1603H27.2364Z" fill="#E6E6E6"/>
<path d="M13.6339 68.1603V54.5222H0.000976562V68.1603H13.6339Z" fill="white"/>
</svg>
